37.7274747,-122.4273257
37.7042048,-122.4158777
37.7679315,-122.4151808
37.729642,-122.4196607
37.73624,-122.431322
37.7074084,-122.4470224
37.7792313,-122.4150363
37.7067553,-122.4136101
37.7789562,-122.4158888
37.733454,-122.422986
37.7684587,-122.4311297
37.7659054,-122.407965
37.7830904,-122.4060378
37.73701,-122.400854
37.7213655,-122.4294383
37.7060853,-122.4506235
37.7194397,-122.4284365
37.7951343,-122.4404204
37.7161328,-122.437733
37.7104067,-122.411276
37.7832933,-122.3958433
37.771399,-122.414938
37.7266918,-122.4301016
37.735124,-122.404964
37.7383773,-122.4304669
37.7046376,-122.4140258
37.74278,-122.42215
37.796434,-122.4391597
37.7169805,-122.4085547
37.7711099,-122.4073786
37.714655,-122.436449
37.7196966,-122.4432515
37.763833,-122.4168272
37.726239,-122.430124
37.7139486,-122.4395357
37.795879,-122.443445
37.729021,-122.4221789
37.7355513,-122.4203686
37.7060537,-122.4123159
37.7948187,-122.4384079
37.7665477,-122.4154544
37.744826,-122.425584
37.7259434,-122.4209991
37.7344021,-122.4008661
37.7253752,-122.4204239
37.7460277,-122.4254787
37.714481,-122.409759
37.7151524,-122.435864
37.7059047,-122.4500634
37.7357427,-122.4466575
37.7665017,-122.4330578
37.7206174,-122.4311747
37.7507256,-122.4490534
37.7377543,-122.4055346
37.7061329,-122.4504687
37.7491353,-122.4494603
37.7128791,-122.4391376
37.7317297,-122.4196648
37.7350867,-122.4019775
37.7105352,-122.4491787
37.7944226,-122.4428533
37.7700117,-122.4148932
37.72741,-122.423729
37.7659054,-122.407965
37.7835351,-122.3966988
37.7050745,-122.4486148
37.7322141,-122.4362179
37.7375815,-122.4318478
37.7139336,-122.440261
37.7667902,-122.4204521
37.7441153,-122.4234325
37.7445359,-122.4234878
37.7694753,-122.4137825
37.7324521,-122.4232112
37.736078,-122.3982197
37.7108351,-122.4380316
37.7767168,-122.4177977
37.7856757,-122.3958433
37.7048796,-122.4516999
37.7039974,-122.415037
37.7946079,-122.4415263
37.7330059,-122.4287083
37.7288215,-122.4207986
37.7664911,-122.4173477
37.7134251,-122.4124264
37.7680448,-122.4135909
37.7658618,-122.4065722
37.7883682,-122.3883242
37.7162376,-122.4141723
37.7968756,-122.4424995
37.731423,-122.4295849
37.728425,-122.422219
37.7128175,-122.4344926
37.7704111,-122.4128087
37.7661103,-122.4078529
37.76917,-122.420676
37.7157608,-122.4401826
37.7329104,-122.4304117
37.725319,-122.4313457
37.7139514,-122.4120171
37.7328267,-122.4291397
37.7317834,-122.4017512
37.789127,-122.443738
37.712993,-122.4327405
37.792991,-122.440494
37.7692135,-122.4177901
37.7659054,-122.407965
37.7372151,-122.4301452
37.727272,-122.419363
37.7512584,-122.4485877
37.767444,-122.4130127
37.7673485,-122.4330549
37.7290107,-122.4298093
37.7359788,-122.4312179
37.74278,-122.42215
37.735535,-122.405002
37.7110649,-122.4466263
37.7182989,-122.4421345
37.706288,-122.4502281
37.7700385,-122.4161985
37.720781,-122.4314278
37.7276882,-122.4202912
37.7502512,-122.4481817
37.7684587,-122.4311297
37.714951,-122.437109
37.766715,-122.4303855
37.7650525,-122.4084997
37.734973,-122.4217955
37.7350469,-122.4379653
37.724789,-122.4309522
37.7338082,-122.4484008
37.7132358,-122.4120725
37.7122782,-122.4402435
37.7371648,-122.4307765
37.7114308,-122.4357313
37.7454965,-122.4208369
37.733997,-122.4332262
37.7902125,-122.4439592
37.7458749,-122.4210101
37.7696945,-122.4157149
37.7158662,-122.407725
37.7111691,-122.4463921
37.7213134,-122.4311948
37.7720745,-122.4167732
37.7115558,-122.4096277
37.7705095,-122.4190594
37.7983792,-122.4390201
37.7274213,-122.4205234
37.7033501,-122.4153246
37.737432,-122.4291507
37.7948768,-122.4392367
37.735717,-122.430957
37.733931,-122.4512134
37.7977703,-122.4388147
37.7810404,-122.4179549
37.7279391,-122.4232895
37.7696121,-122.4076719
37.7692389,-122.4324796
37.7341185,-122.402426
37.7206067,-122.4283323
37.704059,-122.414281
37.767767,-122.431916
37.7645239,-122.4151173
37.7163598,-122.4376003
37.726919,-122.4279116
37.766236,-122.4315286
37.7151424,-122.4110212
37.7911804,-122.4440161
37.7453828,-122.4224591
37.768491,-122.432669
37.7319119,-122.4186613
37.7262036,-122.4312079
37.7678879,-122.4291839
37.7704111,-122.4128087
37.7056742,-122.4512041
37.7667497,-122.4212645
37.7451048,-122.4210324
37.7336699,-122.436127
37.7368224,-122.4287415
37.7507256,-122.4490534
37.714218,-122.412181
37.7685012,-122.4315594
37.7113925,-122.4339175
37.7678809,-122.4266469
37.715337,-122.436784
37.7359169,-122.397359
37.7363361,-122.4067047
37.7657732,-122.4078504
37.7698943,-122.4141853
37.7356654,-122.4205124
37.7114115,-122.4470557
37.7453828,-122.4224591
37.7244528,-122.4221826
37.7332025,-122.4048676
37.794402,-122.439448
37.7173686,-122.4421013
37.7506118,-122.4492509
37.7800847,-122.420339
37.720139,-122.430164
37.7318984,-122.4345831
37.7361399,-122.4018175
37.7257533,-122.429947
37.7348859,-122.4020499
37.7138434,-122.4339728
37.7379893,-122.4303549
37.7318984,-122.4345831
37.7259643,-122.4322586
37.7387528,-122.4294272
37.7351458,-122.4058112
37.7656911,-122.4092292
37.7376575,-122.4295378
37.717302,-122.4413493
37.745027,-122.420983
37.7363925,-122.421176
37.7903329,-122.4463478
37.7355765,-122.4231338
37.768999,-122.4142516
37.7472971,-122.4237422
37.7371278,-122.4062003
37.7147486,-122.4404268
37.732555,-122.4372719
37.7882342,-122.4448472
37.7656911,-122.4092292
37.7188487,-122.4424663
37.796091,-122.438098
37.7050276,-122.4162317
37.7768199,-122.4187205
37.713774,-122.4340171
37.777158,-122.418476
37.7387,-122.430223
37.7113525,-122.4379541
37.7287818,-122.4209622
37.7709546,-122.4120979
37.745138,-122.42191
37.7334713,-122.423167
37.7673302,-122.4084773
37.7351094,-122.3980782
37.719184,-122.4299913
37.7507256,-122.4490534
37.7668717,-122.4302788
37.7467709,-122.4211539
37.7162376,-122.4141723
37.7341374,-122.4288742
37.7053714,-122.4142488
37.7060537,-122.4123159
37.7439117,-122.4250689
37.7266918,-122.4301016
37.746877,-122.423258
37.7707096,-122.4097162
37.7336681,-122.4338813
37.7368489,-122.4291397
37.7667902,-122.4204521
37.7650469,-122.4176594
37.7669472,-122.4154766
37.7325974,-122.4005563
37.711965,-122.4310862
37.7904089,-122.4462612
37.7669472,-122.4154766
37.7691679,-122.4320202
37.7719994,-122.4152693
37.7951819,-122.440728
37.7356039,-122.4007418
37.7710041,-122.4240972
37.767444,-122.4130127
37.7772044,-122.4173489
37.7901738,-122.4464195
37.7250903,-122.4208663
37.7331275,-122.435488
37.7167366,-122.4411767
37.7694106,-122.4173931
37.7692135,-122.4177901
37.7467497,-122.4205566
37.7659826,-122.4230342
37.7359324,-122.4355101
37.7290631,-122.4305996
37.771205,-122.416807
37.794127,-122.440225
37.7132225,-122.409356
37.706138,-122.414591
37.7304511,-122.417725
37.7046376,-122.4140258
37.7270326,-122.4278456
37.7322078,-122.4196273
37.7679315,-122.4151808
37.7041338,-122.4498864
37.7681528,-122.4222248
37.7244924,-122.4308982
37.7195083,-122.4405642
37.7135306,-122.4119618
37.7245794,-122.421165
37.7265413,-122.4320644
37.7686413,-122.4082801
37.7700781,-122.4151919
37.7262426,-122.4207225
37.7158184,-122.4385735
37.763441,-122.4138496
37.7521127,-122.4475747
37.7705226,-122.418538
37.7662315,-122.4149759
37.7109658,-122.4366718
37.767743,-122.409537
37.7286119,-122.4307318
37.7269756,-122.4274253
37.7268888,-122.4290401
37.713774,-122.4340171
37.7781319,-122.4160879
37.7270776,-122.4321812
37.7202534,-122.4428143
37.7092564,-122.4453245
37.710865,-122.4332097
37.7442092,-122.4240961
37.7134341,-122.4095171
37.7688096,-122.431604
37.7467709,-122.4211539
37.7964954,-122.4423446
37.7084132,-122.4459055
37.7335115,-122.4341655
37.7974577,-122.4380095
37.7208699,-122.4312485
37.7286165,-122.4238593
37.7365784,-122.4310627
37.7194252,-122.4293277
37.7521127,-122.4475747
37.7359826,-122.4469671
37.7890931,-122.4459607
37.725739,-122.431117
37.789534,-122.446129
37.7151424,-122.4110212
37.7637156,-122.4151749
37.7687769,-122.4153174
37.7170856,-122.4410839
37.7719812,-122.4104242
37.790171,-122.443379
37.7195097,-122.4308097
37.732831,-122.449712
37.7465649,-122.423229
37.71385,-122.410214
37.7262687,-122.4287857
37.7659054,-122.407965
37.7693226,-122.4261534
37.767665,-122.408253
37.747042,-122.421994
37.7183185,-122.4432515
37.7150296,-122.4386501
37.7124722,-122.4111322
37.7359921,-122.3999036
37.736996,-122.431053
37.7166768,-122.437357
37.7338324,-122.4224135
37.7432753,-122.4237422
37.7898157,-122.4462151
37.7068433,-122.4441218
37.769085,-122.4167752
37.715291,-122.433975
37.766715,-122.4303855
37.7950458,-122.4429608
37.7317023,-122.4294051
37.769021,-122.43324
37.717452,-122.442325
37.7877537,-122.4463257
37.7049308,-122.4507028
37.7121799,-122.430433
37.7957827,-122.439658
37.7050016,-122.4160436
37.7676187,-122.4161734
37.7645735,-122.4165676
37.7670979,-122.4164443
37.7911987,-122.4464363
37.7058097,-122.4520265
37.7308496,-122.4291427
37.7651863,-122.417527
37.7053919,-122.4492783
37.7700098,-122.4326803
37.7365681,-122.4355473
37.7441347,-122.4240961
37.7189551,-122.4301904
37.7196446,-122.4425084
37.7644431,-122.4083882
37.7045437,-122.4491898
37.7644431,-122.4083882
37.7674263,-122.4062869
37.737432,-122.4291507
37.7725185,-122.4144286
37.7674881,-122.4309904
37.7120933,-122.4360299
37.734161,-122.419957
37.7386226,-122.4305775
37.7285483,-122.428689
37.7659498,-122.4102734
37.735072,-122.4053873
37.7139732,-122.4344595
37.7285483,-122.428689
37.7249185,-122.4300576
37.7136428,-122.409141
37.7384351,-122.4302975
37.7368489,-122.4291397
37.72078,-122.440365
37.744942,-122.423461
37.7986621,-122.4530229
37.7913777,-122.4448881
37.715081,-122.438816
37.7258736,-122.4298586
37.7673735,-122.4310399
37.7700385,-122.4161985
37.7267283,-122.4313185
37.767444,-122.4130127
37.7101331,-122.4112871
37.7635621,-122.4173655
37.7318091,-122.3998483
37.7057624,-122.451938
37.7346239,-122.402936
37.736769,-122.406068
37.7940769,-122.4418912
37.7379218,-122.4306597
37.733871,-122.4002908
37.7348965,-122.4301904
37.734756,-122.4018309
37.7353371,-122.4351279
37.7688105,-122.433374
37.7810404,-122.4179549
37.7144547,-122.4328223
37.7275966,-122.4197713
37.7089413,-122.448443
37.7286879,-122.4223706
37.7772044,-122.4173489
37.7317023,-122.4294051
37.7689621,-122.4229679
37.7047892,-122.4142185
37.713434,-122.409754
37.7325591,-122.4317056
37.7359184,-122.4293498
37.7348939,-122.4482056
37.7043929,-122.4158113
37.739011,-122.4306193
37.7268303,-122.4212645
37.7313514,-122.4309095
37.7277125,-122.4284207
37.735927,-122.4078211
37.7663105,-122.4076187
37.7887066,-122.4454662
37.7254105,-122.422354
37.797207,-122.4408185
37.7673649,-122.4175795
37.7441807,-122.4214636
37.7067949,-122.4494995
37.7918305,-122.4451093
37.7308496,-122.4291427
37.714463,-122.4398011
37.7711778,-122.4066262
37.7924078,-122.4439592
37.7682945,-122.4146056
37.7253674,-122.4285977
37.781259,-122.4188298
37.7342888,-122.4055037
37.767665,-122.408253
37.7257097,-122.4283323
37.7342045,-122.41902
37.7267263,-122.4205124
37.728555,-122.4189859
37.7033501,-122.4153246
37.7128051,-122.4332273
37.7309997,-122.4295426
37.7360529,-122.3985536
37.7675713,-122.4073882
37.769433,-122.418557
37.7983658,-122.4414107
37.7669057,-122.4068881
37.7339584,-122.4235209
37.704566,-122.414672
37.767836,-122.409061
37.790509,-122.4462594
37.7252729,-122.4209991
37.7703927,-122.4329
37.7672511,-122.4081896
37.7790928,-122.4207053
37.7671702,-122.4313959
37.7684897,-122.4082781
37.7102853,-122.4330585
37.769085,-122.4167752
37.7852807,-122.3976135
37.7675281,-122.4125915
37.728297,-122.4208534
37.7674859,-122.4334353
37.789976,-122.444942
37.7676187,-122.4161734
37.7659054,-122.407965
37.7723464,-122.4080358
37.7719994,-122.4152693
37.7186324,-122.4412734
37.7034437,-122.4148379
37.766061,-122.4072161
37.7151424,-122.4110212
37.7269964,-122.4231818
37.712721,-122.4357755
37.7669472,-122.4154766
37.7144445,-122.4109884
37.7686782,-122.4114198
37.7149366,-122.4099928
37.7772044,-122.4173489
37.7259128,-122.4309424
37.7644431,-122.4083882
37.7888864,-122.4448218
37.7491353,-122.4494603
37.7491353,-122.4494603
37.7301563,-122.4296484
37.7359662,-122.3980782
37.728653,-122.4232112
37.7101003,-122.4486413
37.7355983,-122.4200595
37.7901738,-122.4464195
37.763818,-122.417043
37.7299973,-122.431407
37.7121629,-122.430349
37.7123564,-122.4310716
37.7679462,-122.4072604
37.7124544,-122.4350677
37.7070939,-122.4497095
37.7780333,-122.4215317
37.7790854,-122.4154732
37.7344414,-122.4474979
37.734356,-122.43649
37.7658011,-122.4315507
37.786332,-122.3952937
37.7775051,-122.4180631
37.735662,-122.429678
37.724789,-122.4309522
37.7676187,-122.4161734
37.7065455,-122.4512141
37.7686947,-122.4134499
37.7127386,-122.4397458
37.788908,-122.446272
37.7849169,-122.3963744
37.7664684,-122.4328995
37.7193087,-122.4304337
37.7835351,-122.3966988
37.737226,-122.430209
37.7073498,-122.4501187
37.737657,-122.4304779
37.7346726,-122.4334309
37.7195605,-122.4307655
37.7507256,-122.4490534
37.7285839,-122.4209216
37.7656718,-122.4095488
37.7336144,-122.4301481
37.7305257,-122.4297353
37.789698,-122.447432
37.7196446,-122.4425084
37.746549,-122.423505
37.7464717,-122.4239744
37.7046153,-122.4488359
37.7160837,-122.4395578
37.7328169,-122.4276576
37.7345184,-122.4068322
37.7047892,-122.4142185
37.7700385,-122.4161985
37.7092684,-122.4453427
37.7353186,-122.438474
37.7345696,-122.436793
37.7146341,-122.4101587
37.7912124,-122.4452117
37.7888802,-122.4436938
37.7670979,-122.4164443
37.76606,-122.4127915
37.7772044,-122.4173489
37.7429228,-122.4234656
37.7053807,-122.4162649
37.7311322,-122.4302899
37.706288,-122.4502281
37.736268,-122.405418
37.7346983,-122.4227799
37.7344953,-122.435853
37.7702058,-122.4320305
37.7144459,-122.4305872
37.7065306,-122.4493676
37.7160063,-122.437357
37.744405,-122.4247774
37.7674741,-122.407739
37.7976298,-122.4421345
37.7922274,-122.444988
37.7138675,-122.4088644
37.7440117,-122.4246465
37.713323,-122.437458
37.744039,-122.425094
37.7881342,-122.4467221
37.7138014,-122.4097162
37.7206624,-122.4304226
37.770362,-122.432378
37.7694106,-122.4173931
37.7654633,-122.4311968
37.7357254,-122.436309
37.7657706,-122.4079636
37.7704323,-122.4108003
37.7989215,-122.4393891
37.7287127,-122.4293166
37.7348116,-122.4303452
37.7217582,-122.4307655
37.716716,-122.410027
37.732785,-122.4364502
37.7111719,-122.4342714
37.7669472,-122.4154766
37.7145173,-122.4084773
37.7363779,-122.4300355
37.7779303,-122.4155172
37.767971,-122.433031
37.7505532,-122.4456285
37.7789562,-122.4158888
37.7331275,-122.435488
37.767836,-122.409061
37.7273141,-122.4318066
37.794796,-122.440739
37.7659054,-122.407965
37.7322292,-122.4190025
37.7674263,-122.4062869
37.7322117,-122.418055
37.7812311,-122.4169234
37.7061984,-122.4149375
37.7183185,-122.4432515
37.7705226,-122.418538
37.7952268,-122.4415705
37.7684271,-122.4326346
37.7659054,-122.407965
37.7895471,-122.4451535
37.7204463,-122.440542
37.7057684,-122.4147605
37.745758,-122.423337
37.7189333,-122.4388611
37.736327,-122.4342272
37.765422,-122.407902
37.7892232,-122.444302
37.7491353,-122.4494603
37.7269273,-122.4194948
37.7269226,-122.4206009
37.7296015,-122.4188532
37.7153514,-122.438246
37.768887,-122.4300741
37.7067344,-122.4133954
37.7267979,-122.4324245
37.736236,-122.4316171
37.7116894,-122.4106786
37.7041947,-122.4499307
37.7711904,-122.4176586
37.7052413,-122.4509257
37.7050116,-122.4161321
37.7202961,-122.4431188
37.7347683,-122.4363285
37.7063043,-122.4149264
37.7368219,-122.4319404
37.7701447,-122.4173131
37.7045437,-122.4491898
37.7145128,-122.4095835
37.7353576,-122.4011206
37.7359095,-122.4028471
37.7300158,-122.4321037
37.7204905,-122.4317388
37.7370839,-122.4055346
37.7681899,-122.4117337
37.7452339,-122.4224591
37.7139928,-122.4120946
37.7656777,-122.4136872
37.744141,-122.420992
37.7659054,-122.407965
37.7461286,-122.4235763
37.744942,-122.423461
37.7301277,-122.4176149
37.77191,-122.413734
37.7659054,-122.407965
37.7666041,-122.4236354
37.7842732,-122.3944714
37.745857,-122.421592
37.706288,-122.4502281
37.716848,-122.4372243
37.7114452,-122.4324134
37.7671667,-122.4222667
37.766236,-122.4076092
37.7888064,-122.4468344
37.7326775,-122.4286862
37.793957,-122.440191
37.704565,-122.4490903
37.770117,-122.407952
37.7884572,-122.443738
37.706138,-122.414591
37.715085,-122.4110147
37.7302153,-122.4187353
37.737237,-122.428622
37.7342509,-122.4294659
37.7700224,-122.4310165
37.7696523,-122.4295781
37.7692389,-122.4324796
37.7653397,-122.4229787
37.735996,-122.4062869
37.7891334,-122.4458544
37.7325936,-122.4382528
37.7311996,-122.4175922
37.7052458,-122.4496321
37.7280639,-122.4210986
37.7352032,-122.4192293
37.767665,-122.408253
37.7316351,-122.4314401
37.7358757,-122.4302457
37.794954,-122.442513
37.7356706,-122.421707
37.7046376,-122.4140258
37.76616,-122.4252843
37.7452796,-122.4250178
37.7703258,-122.4320667
37.7704997,-122.4172706
37.7662489,-122.4223485
37.72778,-122.430569
37.7115872,-122.4377663
37.765015,-122.415715
37.794668,-122.441393
37.7214349,-122.429394
37.7368403,-122.4053576
37.725427,-122.4296152
37.7156715,-122.4401107
37.7703443,-122.4314844
37.713954,-122.434992
37.7335555,-122.438485
37.7891723,-122.4452531
37.7843099,-122.3951604
37.7869984,-122.3955667
37.736863,-122.4045728
37.728062,-122.419837
37.7669472,-122.4154766
37.7144744,-122.4082228
37.7132127,-122.4378105
37.7359095,-122.4028471
37.7365889,-122.404539
37.7680128,-122.4314401
37.7785269,-122.4154126
37.7671189,-122.4297253
37.7202017,-122.4409803
37.790532,-122.444561
37.7709205,-122.4150055
37.7264037,-122.4316171
37.7188298,-122.4302346
37.7686266,-122.4096499
37.7319119,-122.4186613
37.7846806,-122.3949427
37.7434844,-122.4245573
37.7947613,-122.440907
37.728297,-122.4208534
37.7894521,-122.4441387
37.7721455,-122.4126145
37.7148139,-122.410986
37.70485,-122.4493446
37.7883234,-122.4444024
37.786332,-122.3952937
37.734344,-122.449228
37.7060092,-122.4135941
37.7696945,-122.4157149
37.7261513,-122.4285313
37.733583,-122.419078
37.7643968,-122.4137207
37.7261781,-122.4229015
37.7854786,-122.394587
37.7043136,-122.4496653
37.7155955,-122.4380869
37.7877537,-122.4463257
37.7834323,-122.3962674
37.7845462,-122.3954569
37.7332526,-122.4478518
37.7669472,-122.4154766
37.7177482,-122.4418359
37.798904,-122.439593
37.7380299,-122.4295378
37.7699654,-122.4262419
37.7686266,-122.4096499
37.7859806,-122.397275
37.7273525,-122.432347
37.7285554,-122.4328558
37.707331,-122.449607
37.7686266,-122.4096499
37.7659054,-122.407965
37.7675281,-122.4125915
37.767402,-122.408404
37.7453828,-122.4224591
37.7123188,-122.4296911
37.7678673,-122.4304005
37.7263573,-122.4289516
37.7960845,-122.4405973
37.735996,-122.4062869
37.7660399,-122.4307075
37.771146,-122.416855
37.7116333,-122.4309535
37.7975891,-122.440907
37.763895,-122.4166852
37.7696313,-122.4088153
37.73467,-122.436199
37.7920094,-122.4435611
37.767341,-122.424719
37.732836,-122.4304116
37.789915,-122.445723
37.7692143,-122.4328594
37.7963741,-122.4395357
37.7673672,-122.4213751
37.7057242,-122.4157228
37.785242,-122.3963408
37.7046376,-122.4140258
37.7347508,-122.434999
37.7782791,-122.419829
37.7491353,-122.4494603
37.7715964,-122.4154905
37.7856068,-122.3947586
37.7686266,-122.4096499
37.737207,-122.3994939
37.7883347,-122.4437009
37.7327695,-122.4238749
37.768314,-122.4087587
37.7053714,-122.4142488
37.76818,-122.42981
37.7375464,-122.4308982
37.7059797,-122.4514012
37.7512584,-122.4485877
37.7167869,-122.441671
37.7700373,-122.4220196
37.7433245,-122.4211009
37.7285437,-122.4212645
37.7945028,-122.4381201
37.765422,-122.407902
37.706288,-122.4502281
37.7335309,-122.4380207
37.7364148,-122.4028922
37.719107,-122.428503
37.765422,-122.407902
37.7359184,-122.4293498
37.7449911,-122.4210986
37.730923,-122.418815
37.747821,-122.422912
37.7478086,-122.42226
37.7244753,-122.4218065
37.7693562,-122.4175701
37.7700877,-122.4331655
37.7884286,-122.4462559
37.7709614,-122.412349
37.7361399,-122.4018175
37.7849196,-122.3959275
37.7335088,-122.4298586
37.7370529,-122.430839
37.7322078,-122.4196273
37.7060092,-122.4135941
37.7654549,-122.4147921
37.7789562,-122.4158888
37.733129,-122.4006448
37.7662315,-122.4149759
37.7467983,-122.4244046
37.7801637,-122.4161985
37.7148817,-122.4132197
37.733627,-122.399396
37.767743,-122.409537
37.7179059,-122.4428976
37.7379659,-122.4286862
37.7689253,-122.4160657
37.730986,-122.430693
37.7359423,-122.4355986
37.745703,-122.4234767
37.73429,-122.428472
37.7143002,-122.4402499
37.7333394,-122.4280779
37.7330876,-122.4005674
37.767389,-122.430296
37.7640479,-122.4147866
37.7981029,-122.4393587
37.7359921,-122.3999036
37.7213234,-122.4305443
37.736524,-122.431895
37.7657207,-122.4087338
37.7677644,-122.4307243
37.7293445,-122.4302899
37.7698901,-122.4332536
37.7340739,-122.4486922
37.7044384,-122.4494109
37.72677,-122.423203
37.7346449,-122.4367598
37.779462,-122.4185453
37.7847302,-122.3968612
37.7704323,-122.4108003
37.7258157,-122.4202027
37.7658081,-122.4239634
37.771146,-122.416855
37.7794918,-122.417618
37.7659087,-122.413174
37.7375577,-122.4288632
37.7345184,-122.4068322
37.7332627,-122.4479402
37.7944406,-122.4402894
37.7321739,-122.435864
37.7163598,-122.4376003
37.7296015,-122.4188532
37.7364423,-122.4478628
37.7319734,-122.4363949
37.7152083,-122.4351673
37.7338948,-122.430941
37.769061,-122.42773
37.7678825,-122.4297702
37.7804777,-122.4171281
37.798463,-122.441835
37.7162376,-122.4141723
37.7674859,-122.4334353
37.769236,-122.4207946
37.7365313,-122.4304601
37.768711,-122.4117875
37.770653,-122.4124864
37.7155313,-122.4105127
37.726352,-122.4278
37.7139026,-122.4101145
37.7666768,-122.4073931
37.7683532,-122.4271267
37.7290131,-122.4225198
37.7845469,-122.3972152
37.7700787,-122.4070034
37.7307958,-122.4357408
37.77769,-122.416676
37.767974,-122.410312
37.7041414,-122.4149928
37.7067264,-122.4509253
37.7767687,-122.4166164
37.7667627,-122.4330818
37.7447669,-122.4214017
37.7186709,-122.4430745
37.7387528,-122.4294272
37.7700877,-122.4331655
37.7917812,-122.4480722
37.7711778,-122.4066262
37.7507256,-122.4490534
37.7246067,-122.4230109
37.7102196,-122.4087317
37.702884,-122.4148077
37.7433245,-122.4211009
37.7345184,-122.4068322
37.7448158,-122.4237387
37.7202017,-122.4409803
37.7059047,-122.4500634
37.7216617,-122.4288078
37.789408,-122.446345
37.7777096,-122.4188532
37.7060734,-122.451008
37.7261994,-122.4214083
37.734966,-122.4053355
37.7466168,-122.4236537
37.714908,-122.435344
37.7280639,-122.4210986
37.7432494,-122.423265
37.7162376,-122.4141723
37.7045437,-122.4491898
37.732859,-122.40315
37.7358389,-122.3991292
37.7507408,-122.4490282
37.7377873,-122.4293277
37.7447669,-122.4214017
37.7185991,-122.4116294
37.719052,-122.4312079
37.7507256,-122.4490534
37.7037153,-122.4506716
37.745207,-122.4204571
37.766536,-122.4259543
37.7679404,-122.4291907
37.7897458,-122.4455959
37.78935,-122.446092
37.7507256,-122.4490534
37.7672511,-122.4081896
37.7450749,-122.4205234
37.7338874,-122.428476
37.76769,-122.432124
37.70658,-122.4141392
37.735705,-122.429611
37.7664133,-122.4070392
37.7127618,-122.4318675
37.763706,-122.4151739
37.7054622,-122.4153025
37.733112,-122.401588
37.7884781,-122.4434284
37.7656388,-122.4101259
37.7312466,-122.4179591
37.7325861,-122.4311636
37.7126521,-122.4385734
37.7656393,-122.4101169
37.732691,-122.4017069
37.7301561,-122.4180789
37.7638529,-122.413595
37.7067387,-122.4133003
37.7208304,-122.4287857
37.7491353,-122.4494603
37.7976533,-122.4426322
37.7339807,-122.4334369
37.7290477,-122.4306448
37.768289,-122.414919
37.770608,-122.4098047
37.7144459,-122.4305872
37.7669734,-122.4105172
37.706,-122.4497537
37.7188083,-122.4291839
37.790837,-122.444108
37.7370472,-122.4305134
37.731276,-122.4205581
37.7762288,-122.4183475
37.7255311,-122.4289738
37.7301795,-122.4287857
37.7143844,-122.4092737
37.736009,-122.4287525
37.7197195,-122.4288491
37.7686457,-122.4244336
37.7361932,-122.4296775
37.7698656,-122.4152472
37.7338497,-122.4187255
37.746957,-122.422707
37.7310977,-122.4296232
37.7336144,-122.4301481
37.7356123,-122.419716
37.7364887,-122.4479845
37.7665391,-122.4079671
37.7156813,-122.4355989
37.7262313,-122.4236979
37.7285483,-122.428689
37.7502413,-122.4452843
37.7888864,-122.4448218
37.73641,-122.429891
37.7206624,-122.4304226
37.7964264,-122.4430524
37.7668007,-122.4125669
37.7805277,-122.4192514
37.7440337,-122.4236979
37.7700781,-122.4151919
37.7951343,-122.4404204
37.73701,-122.400854
37.7046376,-122.4140258
37.7255406,-122.4281553
37.736587,-122.431797
37.7059259,-122.4156122
37.7208304,-122.4287857
37.7655201,-122.4072962
37.7325088,-122.4180948
37.7116983,-122.4094065
37.7271166,-122.4321148
37.7659787,-122.4069179
37.7178564,-122.4419686
37.7123466,-122.4364291
37.7968232,-122.4391186
37.7352881,-122.4356981
37.7357396,-122.4306881
37.7779858,-122.4181576
37.714265,-122.437001
37.705449,-122.4490018
37.7906277,-122.4440735
37.7155822,-122.438915
37.7201157,-122.4308982
37.7179059,-122.4428976
37.7348589,-122.4336693
37.7312623,-122.418267
37.7154444,-122.4102804
37.7316351,-122.4314401
37.7265191,-122.4282438
37.765693,-122.422973
37.7979905,-122.4422102
37.7717904,-122.4166365
37.7897078,-122.443992
37.7136315,-122.4340824
37.7521127,-122.4475747
37.7141407,-122.4091962
37.744342,-122.4242522
37.7958331,-122.4394826
37.718474,-122.430125
37.7326273,-122.4347544
37.7354074,-122.4204128
37.7433824,-122.4216074
37.7708853,-122.4180533
37.7136312,-122.4105127
37.7210347,-122.4285756
37.7470893,-122.4217152
37.7664248,-122.4134055
37.7045193,-122.4147937
37.728756,-122.42926
37.768314,-122.4087587
37.767836,-122.409061
37.7144459,-122.4305872
37.7927972,-122.446464
37.7810404,-122.4179549
37.7763296,-122.4182313
37.7711099,-122.4073786
37.7686266,-122.4096499
37.7146199,-122.4099928
37.734081,-122.419948
37.7843157,-122.3951676
37.7521127,-122.4475747
37.7337802,-122.4350001
37.7285483,-122.428689
37.7353707,-122.4225451
37.7924559,-122.4435611
37.7665653,-122.4328424
37.7309785,-122.4191297
37.7350163,-122.405778
37.7365007,-122.4305443
37.7704323,-122.4108003
37.7061473,-122.4135879
37.7365811,-122.4294051
37.7659054,-122.407965
37.7200307,-122.4299028
37.767402,-122.408404
37.7137387,-122.4394914
37.7654631,-122.4249772
37.7368189,-122.405298
37.7312645,-122.4295433
37.7346272,-122.4221937
37.7355614,-122.4020941
37.7148815,-122.4108999
37.7348423,-122.4039195
37.7715598,-122.4104021
37.7293043,-122.4178997
37.790522,-122.444915
37.79739,-122.442891
37.768103,-122.429371
37.7775216,-122.4157118
37.769779,-122.4120171
37.7665674,-122.4316613
37.7133443,-122.437534
37.7661355,-122.4330066
37.7253023,-122.4291728
37.729076,-122.4195233
37.7141982,-122.4116079
37.7184257,-122.4115667
37.705749,-122.4493888
37.7883682,-122.3883242
37.7329156,-122.431606
37.7437329,-122.423344
37.7913823,-122.4442688
37.7112185,-122.4115747
37.7192983,-122.4423668
37.7317797,-122.4313955
37.7261681,-122.4200257
37.735665,-122.422312
37.7089582,-122.4082892
37.7053268,-122.4159551
37.7129098,-122.4338291
37.7678138,-122.4309721
37.730301,-122.431244
37.7699969,-122.4328558
37.790472,-122.447765
37.7377619,-122.4294777
37.7902386,-122.447254
37.7103966,-122.4111875
37.7111277,-122.4377775
37.7100767,-122.4477633
37.7831065,-122.3963301
37.7877554,-122.444826
37.7139928,-122.4120946
37.7656911,-122.4092292
37.711298,-122.429729
37.7035064,-122.4148158
37.7107241,-122.4105459
37.7986859,-122.441164
37.7428015,-122.4228578
37.7276273,-122.4202469
37.7265178,-122.4294036
37.7712154,-122.4150435
37.765591,-122.418043
37.7332106,-122.4313818
37.7281596,-122.4323353
37.7107671,-122.4382528
37.7063715,-122.4154352
37.769671,-122.41827
37.7684796,-122.4167392
37.7767687,-122.4166164
37.7253066,-122.4297037
37.746851,-122.423707
37.7453736,-122.4202187
37.7341564,-122.4303983
37.7707238,-122.4238401
37.7198345,-122.4284207
37.791776,-122.4452862
37.7198463,-122.4427649
37.7382359,-122.4311083
37.7466131,-122.4495205
37.720139,-122.430164
37.7658618,-122.4065722
37.70485,-122.4493446
37.7879701,-122.4475858
37.7370422,-122.4308844
37.7473805,-122.4244312
37.7906841,-122.4466575
37.7882867,-122.4474451
37.770368,-122.4097473
37.7466131,-122.4495205
37.776731,-122.4192514
37.76687,-122.433873
37.772225,-122.4108415
37.7160063,-122.437357
37.702884,-122.4148077
37.7645562,-122.413951
37.7162376,-122.4141723
37.789965,-122.4460507
37.7658011,-122.4315507
37.7468288,-122.4244576
37.7291235,-122.4284655
37.767743,-122.409537
37.7052915,-122.4149485
37.7033501,-122.4153246
37.7334678,-122.4509038
37.7322294,-122.4193987
37.7969722,-122.4380759
37.7644431,-122.4083882
37.7057684,-122.4147605
37.7695874,-122.4169166
37.7773075,-122.4190282
37.7368942,-122.4311289
37.7865115,-122.3970376
37.7669057,-122.4068881
37.73613,-122.403123
37.794954,-122.442513
37.7278917,-122.4285867
37.7335429,-122.4228131
37.729967,-122.4306881
37.7311791,-122.4290088
37.7140317,-122.4380962
37.7260948,-122.4218397
37.7199044,-122.4299802
37.7365202,-122.4293609
37.7800971,-122.4201744
37.7366386,-122.4313356
37.7699422,-122.413787
37.746916,-122.4226803
37.7302593,-122.4188643
37.7344186,-122.4383664
37.719184,-122.4299913
37.7669734,-122.4105172
37.744693,-122.421794
37.7659054,-122.407965
37.7272916,-122.4239744
37.7796328,-122.416075
37.7856757,-122.3958433
37.7779303,-122.4155172
37.7181008,-122.4409623
37.7911569,-122.4470556
37.7379874,-122.4290401
37.706138,-122.414591
37.745703,-122.4234767
37.729027,-122.432343
37.7322338,-122.4199859
37.7140612,-122.4106897
37.7866005,-122.3974001
37.78935,-122.446092
37.7701264,-122.4136431
37.7336519,-122.4500634
37.7866881,-122.3949767
37.7491353,-122.4494603
37.7053402,-122.4493557
37.7491353,-122.4494603
37.726597,-122.4320484
37.7155365,-122.4135879
37.7717026,-122.4118013
37.7358192,-122.402635
37.7681899,-122.4117337
37.7376055,-122.4307232
37.7656388,-122.4101259
37.7201157,-122.4308982
37.737738,-122.431111
37.733378,-122.436263
37.7044384,-122.4494109
37.7659054,-122.407965
37.7977879,-122.4399891
37.766035,-122.406883
37.7841345,-122.3968612
37.733829,-122.406716
37.7326755,-122.4282991
37.7281661,-122.4233108
37.7089503,-122.4444016
37.7713865,-122.4177471
37.7334602,-122.4307434
37.7126465,-122.4357755
37.7247425,-122.4304834
37.7129117,-122.4118844
37.7336416,-122.4506716
37.7132386,-122.4110326
37.7703258,-122.4320667
37.720149,-122.4396626
37.7187677,-122.4297701
37.7972525,-122.4400665
37.737531,-122.4008661
37.7337887,-122.4493476
37.7043985,-122.4153689
37.7713078,-122.408549
37.729099,-122.4315729
37.7379592,-122.4298586
37.793603,-122.4462463
37.7139071,-122.4090083
37.7155273,-122.4078578
37.727223,-122.432537
37.7659054,-122.407965
37.7351644,-122.4386277
37.7332025,-122.4048676
37.7337427,-122.4338512
37.7341374,-122.4288742
37.70485,-122.4493446
37.7046376,-122.4140258
37.7272895,-122.4282215
37.7656388,-122.4101259
37.7537873,-122.4476777
37.7050016,-122.4160436
37.7363113,-122.428732
37.7280639,-122.4210986
37.769827,-122.4114744
37.780174,-122.4169601
37.746422,-122.4217184
37.7208147,-122.4298364
37.7357154,-122.4375788
37.785712,-122.3942331
37.7697367,-122.4230941
37.7673164,-122.4163644
37.7908364,-122.4466561
37.7249211,-122.4234767
37.7644431,-122.4083882
37.7196054,-122.4281664
37.7712319,-122.4144835
37.7056406,-122.4518495
37.7966069,-122.4399915
37.7984913,-122.4422847
37.7060125,-122.4509638
37.765311,-122.4322365
37.706019,-122.4507783
37.7103843,-122.4484004
37.7704033,-122.4127881
37.7694167,-122.4170535
37.7335538,-122.4000806
37.7650525,-122.4084997
37.7357111,-122.4359098
37.7330365,-122.3975803
37.7148817,-122.4132197
37.711877,-122.4101587
37.7376575,-122.4295378
37.7470688,-122.4211539
37.7713865,-122.4177471
37.7650826,-122.4132864
37.7365289,-122.4050817
37.7658689,-122.4304226
37.7700597,-122.4061984
37.717,-122.4387284
37.76747,-122.425524
37.7951343,-122.4404204
37.7491353,-122.4494603
37.7369178,-122.4357865
37.7041632,-122.4506384
37.7690763,-122.4300621
37.738828,-122.429787
37.7184257,-122.4115667
37.7319119,-122.4186613
37.7301866,-122.4285203
37.7249185,-122.4300576
37.7318746,-122.420721
37.7186458,-122.4417032
37.7318984,-122.4345831
37.7340502,-122.4005563
37.7771867,-122.4189196
37.789443,-122.446111
37.7659054,-122.407965
37.7334983,-122.4285889
37.7700911,-122.4070189
37.70485,-122.4493446
37.767617,-122.4272821
37.735078,-122.4202647
37.727421,-122.4286419
37.7065478,-122.4491906
37.7885505,-122.4462151
37.7673548,-122.4323692
37.7335184,-122.4361847
37.7132645,-122.4370509
37.7345324,-122.4068282
37.7690127,-122.4145621
37.7443396,-122.422249
37.7794204,-122.4167943
37.7663418,-122.4156897
37.718952,-122.429028
37.7697163,-122.4298165
37.726493,-122.4293305
37.7681483,-122.4168943
37.7287883,-122.4211834
37.7146814,-122.4328226
37.709168,-122.4436938
37.7368403,-122.4053576
37.7369998,-122.4283765
37.725348,-122.4232997
37.767915,-122.407248
37.7670762,-122.4330328
37.7277125,-122.4284207
37.7333441,-122.4283654
37.7277701,-122.4283544
37.7776716,-122.4193399
37.770819,-122.415609
37.7662589,-122.4171819
37.7891334,-122.4458544
37.7345489,-122.4326732
37.7073411,-122.4460603
37.7064684,-122.4132195
37.7666955,-122.41684
37.7370472,-122.4305134
37.725913,-122.423319
37.705647,-122.4497206
37.7147524,-122.435499
37.710637,-122.437565
37.7152444,-122.4096277
37.7313636,-122.4287231
37.7452565,-122.4213862
37.7918822,-122.4474467
37.7251178,-122.4312795
37.7331954,-122.4292957
37.7651155,-122.4149993
37.791776,-122.4452862
37.716171,-122.410401
37.725587,-122.423184
37.7713207,-122.4165082
37.7360269,-122.4292392
37.7337533,-122.4293056
37.7659054,-122.407965
37.711306,-122.4385293
37.74996,-122.4469447
37.7360572,-122.4218729
37.7777096,-122.4188532
37.7136327,-122.4090525
37.7141407,-122.4091962
37.744608,-122.4235114
37.7055243,-122.4157671
37.7042607,-122.4511692
37.735983,-122.4361628
37.7798066,-122.4159569
37.7659054,-122.407965
37.7699165,-122.4303341
37.7635667,-122.4155127
37.7300864,-122.4169728
37.712152,-122.432997
37.7335538,-122.4000806
37.7657706,-122.4079636
37.711672,-122.4383081
37.7339622,-122.4486922
37.7351601,-122.4048536
37.7253332,-122.4236205
37.7256308,-122.4238638
37.7148033,-122.4354548
37.766148,-122.4320263
37.7768199,-122.4187205
37.7057316,-122.415214
37.7662315,-122.4149759
37.712128,-122.433986
37.7676813,-122.4169284
37.7290782,-122.4288077
37.76404,-122.415998
37.7359184,-122.4293498
37.7375815,-122.4318478
37.765839,-122.424524
37.7255406,-122.4281553
37.730374,-122.4289406
37.7049069,-122.4516115
37.769779,-122.4120171
37.7119424,-122.4374566
37.7111474,-122.4328669
37.765767,-122.4080279
37.7056075,-122.4511579
37.7268049,-122.419893
37.7311322,-122.4302899
37.7335329,-122.3989964
37.7673302,-122.4084773
37.7784107,-122.4202254
37.7704111,-122.4128087
37.7049345,-122.4509863
37.7123188,-122.4296911
37.7275413,-122.4285535
37.7199172,-122.4428976
37.7463253,-122.4206691
37.7837966,-122.3965071
37.704059,-122.414281
37.7142859,-122.4104132
37.7336681,-122.4338813
37.7060092,-122.4135941
37.7659054,-122.407965
37.7264114,-122.4197492
37.7271166,-122.4321148
37.7277997,-122.4198377
37.7506118,-122.4492509
37.7336559,-122.4314448
37.7898742,-122.4469391
37.7215943,-122.4292392
37.7491353,-122.4494603
37.7336681,-122.4338813
37.7118617,-122.4283201
37.7348539,-122.4368372
37.7356677,-122.4039305
37.7161794,-122.4383081
37.7445821,-122.4213088
37.7767168,-122.4177977
37.7685885,-122.4347944
37.778493,-122.416053
37.7157489,-122.4107618
37.7689949,-122.432678
37.7161617,-122.4101587
37.767282,-122.40696
37.7195403,-122.4287415
37.704487,-122.4157781
37.7331275,-122.435488
37.787827,-122.444239
37.7148817,-122.4132197
37.7103746,-122.4454632
37.7470514,-122.4227246
37.7882175,-122.445242
37.7363799,-122.428576
37.7195397,-122.4292281
37.7050116,-122.4161321
37.7335942,-122.3994943
37.705291,-122.4154352
37.7805277,-122.4192514
37.7659054,-122.407965
37.7644431,-122.4083882
37.7948768,-122.4392367
37.7907601,-122.4462122
37.7474144,-122.4221494
37.7700672,-122.4327784
37.7332451,-122.4504172
37.797033,-122.441186
37.7364764,-122.4309867
37.7256514,-122.4288853
37.7811327,-122.4185102
37.7681899,-122.4117337
37.7961738,-122.4388228
37.7665174,-122.4312189
37.7062462,-122.4154795
37.7162376,-122.4141723
37.7450626,-122.4038065
37.7983847,-122.4389262
37.7290193,-122.4303784
37.7661214,-122.4104493
37.7322284,-122.4205912
37.7353672,-122.4337869
37.7106535,-122.4108667
37.7127199,-122.4385955
37.7891686,-122.4454853
37.767836,-122.409061
37.750233,-122.447835
37.7705226,-122.418538
37.7120291,-122.4105127
37.7330655,-122.428768
37.7382359,-122.4311083
37.7193426,-122.4280323
37.736813,-122.399671
37.7147943,-122.4092737
37.7053486,-122.4153689
37.7332213,-122.4227688
37.7138936,-122.4332325
37.7031743,-122.4149264
37.7665686,-122.4329885
37.7270776,-122.4321812
37.7656181,-122.4105223
37.7115493,-122.4303784
37.702884,-122.4148077
37.7677665,-122.4318234
37.7668647,-122.4301671
37.7719738,-122.4096702
37.7862286,-122.3962106
37.7711778,-122.4066262
37.7834444,-122.3962839
37.7085544,-122.4472002
37.7342248,-122.4293166
37.7301628,-122.4317166
37.7884609,-122.4436053
37.712075,-122.4383302
37.7301434,-122.4038318
37.7060125,-122.4509638
37.7074947,-122.4470444
37.7802916,-122.4192815
37.7319119,-122.4186613
37.7122337,-122.4106633
37.7448648,-122.4200257
37.7158374,-122.4357866
37.7710382,-122.4180795
37.7151524,-122.435864
37.7440901,-122.4228578
37.7188655,-122.4413825
37.7776121,-122.420623
37.7700597,-122.4061984
37.7669057,-122.4068881
37.7705226,-122.418538
37.7268147,-122.4280618
37.7051339,-122.4154143
37.728333,-122.432478
37.7849196,-122.3959275
37.7157489,-122.4107618
37.7939794,-122.4463478
37.7339389,-122.4279452
37.7329871,-122.4282548
37.7310236,-122.4171897
37.704918,-122.4512711
37.7883682,-122.3883242
37.7358057,-122.3985096
37.7688877,-122.4151587
37.7247425,-122.4304834
37.733136,-122.437584
37.74278,-122.42215
37.7948686,-122.4395353
37.7134102,-122.4113534
37.7209072,-122.4303231
37.7144547,-122.4328223
37.771727,-122.4106455
37.7346361,-122.4328924
37.7352659,-122.4012976
37.7054509,-122.45154
37.765422,-122.407902
37.7658448,-122.4133657
37.7321173,-122.4341695
37.7340785,-122.4366763
37.7669472,-122.4154766
37.7144459,-122.4305872
37.76404,-122.415998
37.7934328,-122.4415458
37.7187461,-122.4425879
37.730986,-122.430693
37.7791078,-122.4153089
37.7359328,-122.4299692
37.7189744,-122.4433289
37.765685,-122.432252
37.7698978,-122.4302718
37.7808029,-122.4165279
37.744323,-122.425567
37.7277611,-122.4235984
37.7336144,-122.4301481
37.7350217,-122.4009104
37.7767687,-122.4166164
37.7189457,-122.4296152
37.7100767,-122.4477633
37.7250766,-122.4230011
37.7142182,-122.4355101
37.7260385,-122.4281111
37.7274671,-122.4273425
37.7379492,-122.4307308
37.7170878,-122.4404103
37.732208,-122.427365
37.7679058,-122.4070404
37.7115129,-122.408695
37.7789562,-122.4158888
37.7358182,-122.3971046
37.737657,-122.4304779
37.738828,-122.429787
37.746851,-122.423707
37.7941,-122.441357
37.736236,-122.4316171
37.7465102,-122.4230011
37.7248396,-122.4302099
37.7376938,-122.4003343
37.7700385,-122.4161985
37.7251283,-122.4312606
37.7790928,-122.4207053
37.7273141,-122.4318066
37.719893,-122.4414212
37.7339013,-122.4049887
37.7350508,-122.4364391
37.7427647,-122.423344
37.7327213,-122.4329576
37.779462,-122.4185453
37.7043287,-122.450948
37.7144459,-122.4305872
37.735996,-122.4062869
37.7905812,-122.4441738
37.7338807,-122.4329966
37.7960517,-122.4417917
37.73311,-122.43046
37.7656718,-122.4095488
37.7669839,-122.4300703
37.7046376,-122.4140258
37.7367893,-122.4359262
37.7131865,-122.4397126
37.7711213,-122.4154643
37.7470688,-122.4211539
37.7298874,-122.4297204
37.7259083,-122.4292613
37.7758207,-122.4171276
37.7365781,-122.4298173
37.7205445,-122.4398896
37.735943,-122.430116
37.736915,-122.4356762
37.7682137,-122.4213945
37.7063095,-122.4140304
37.7061473,-122.4135879
37.7809292,-122.4167958
37.7673718,-122.4312853
37.7301606,-122.417913
37.7332526,-122.4478518
37.7335821,-122.3980782
37.703946,-122.415568
37.7348695,-122.4486479
37.7704161,-122.414962
37.7186324,-122.4412734
37.7696504,-122.4159328
37.7101899,-122.4449434
37.7185996,-122.4401882
37.7691729,-122.4335857
37.744896,-122.4225587
37.735288,-122.435698
37.7916147,-122.4430303
37.768038,-122.430441
37.7636561,-122.4162823
37.7719325,-122.4113092
37.7121629,-122.430349
37.7264203,-122.420811
37.7091352,-122.4453747
37.7936404,-122.4398791
37.7365842,-122.4366601
37.732937,-122.44915
37.714515,-122.412665
37.7123188,-122.4296911
37.706116,-122.4488383
37.7682232,-122.4123306
37.795758,-122.440822
37.7771637,-122.4151808
37.7037153,-122.4506716
37.7308685,-122.4173155
37.7794204,-122.4167943
37.7801712,-122.4195416
37.7158531,-122.410557
37.7105947,-122.4475046
37.7786719,-122.4177549
37.745122,-122.425654
37.7327949,-122.4372354
37.7653717,-122.4183633
37.7695915,-122.4069949
37.7339642,-122.4495326
37.7252723,-122.4214858
37.704242,-122.4500191
37.7347001,-122.4054088
37.7362218,-122.4050368
37.7685917,-122.4347308
37.7308685,-122.4173155
37.788976,-122.445987
37.7881526,-122.4461689
37.712835,-122.439143
37.7063715,-122.4154352
37.7046376,-122.4140258
37.7267283,-122.4313185
37.7293751,-122.4171055
37.7194711,-122.4292392
37.7124638,-122.4356428
37.7907868,-122.4451756
37.7377978,-122.428476
37.7179059,-122.4428976
37.7664133,-122.4070392
37.714152,-122.440631
37.7504084,-122.4453767
37.7699124,-122.4098269
37.7974577,-122.4380095
37.7903935,-122.4448031
37.7197836,-122.428465
37.7750159,-122.419164
37.7037766,-122.4156343
37.7772904,-122.4197826
37.7054641,-122.4502844
37.7327681,-122.4303898
37.765422,-122.407902
37.7188535,-122.4432072
37.767389,-122.430296
37.7157489,-122.4107618
37.768559,-122.432676
37.7166404,-122.4387804
37.7178149,-122.439591
37.7267409,-122.431854
37.7634994,-122.4169552
37.7266232,-122.4296447
37.7679702,-122.4313203
37.736067,-122.4222047
37.7328053,-122.429936
37.7686576,-122.4165275
37.7158574,-122.4385072
37.7656393,-122.4101169
37.7324822,-122.4285645
37.702884,-122.4148077
37.7060966,-122.448471
37.7772044,-122.4173489
37.732176,-122.4019282
37.7051775,-122.4493999
37.7109288,-122.4366048
37.733574,-122.449629
37.7458904,-122.4200865
37.7821497,-122.3968536
37.7507256,-122.4490534
37.716716,-122.410027
37.7099396,-122.4404128
37.7069143,-122.450384
37.7711099,-122.4073786
37.7301563,-122.4296484
37.736863,-122.399857
37.7651378,-122.4079333
37.7363316,-122.4067728
37.7640479,-122.4147866
37.7327238,-122.4295046
37.7656388,-122.4101259
37.7673919,-122.4319157
37.7157742,-122.4124078
37.795529,-122.442149
37.7843157,-122.3951676
37.7049103,-122.4491787
37.7361149,-122.431042
37.7357107,-122.4289959
37.7110433,-122.4485263
37.7659054,-122.407965
37.7341492,-122.4482056
37.735117,-122.400114
37.7275866,-122.4269529
37.7899021,-122.4439703
37.769015,-122.4237643
37.7657517,-122.41538
37.7673402,-122.4071962
37.7332492,-122.4504946
37.7103564,-122.4098932
37.7332282,-122.4482941
37.7348012,-122.4012644
37.726095,-122.429228
37.7350319,-122.403017
37.7452088,-122.4206591
37.766061,-122.4072161
37.7381079,-122.4294051
37.7690381,-122.4206458
37.7673164,-122.4163644
37.7144547,-122.4328223
37.7656388,-122.4101259
37.7364444,-122.3985904
37.7447045,-122.4209106
37.7715964,-122.4154905
37.770117,-122.407952
37.715885,-122.437872
37.7263912,-122.4320816
37.766527,-122.430769
37.7213381,-122.4283765
37.706878,-122.4448107
37.781259,-122.4188298
37.728555,-122.4189859
37.7376398,-122.4306586
37.7307171,-122.4297028
37.795857,-122.442934
37.7669734,-122.4105172
37.7884162,-122.4465911
37.7071218,-122.4491925
37.733515,-122.419084
37.7908364,-122.4466561
37.7445821,-122.4213088
37.7883347,-122.4437009
37.732859,-122.40315
37.736996,-122.431053
37.7048465,-122.4517773
37.719456,-122.428653
37.7345324,-122.4068282
37.791182,-122.443104
37.7373881,-122.428476
37.789324,-122.4433399
37.7892393,-122.4468786
37.734756,-122.4018309
37.7725242,-122.4105348
37.7656777,-122.4136872
37.7656388,-122.4101259
37.7686413,-122.4082801
37.7633497,-122.4161314
37.7264114,-122.4197492
37.7203775,-122.4306917
37.745149,-122.425195
37.7684897,-122.4082781
37.7106097,-122.4316171
37.7198814,-122.4294493
37.7318984,-122.4345831
37.7656388,-122.4101259
37.7762288,-122.4183475
37.7664133,-122.4070392
37.745641,-122.42516
37.7060585,-122.4159994
37.767836,-122.409061
37.7329962,-122.4046444
37.716716,-122.410027
37.7371624,-122.4294825
37.7332208,-122.4382418
37.7047277,-122.4513461
37.7162376,-122.4141723
37.7383668,-122.4312809
37.7905708,-122.445817
37.7701447,-122.4173131
37.7069167,-122.4450082
37.767402,-122.408404
37.7196462,-122.4312742
37.7363361,-122.4067047
37.7277537,-122.4241072
37.7060272,-122.4496653
37.7660602,-122.4321454
37.7317297,-122.4196648
37.7314693,-122.4289873
37.7772159,-122.4203479
37.7700781,-122.4151919
37.770372,-122.414984
37.7347001,-122.4054088
37.7203775,-122.4306917
37.7319119,-122.4186613
37.7207145,-122.4294051
37.7365889,-122.404539
37.7657476,-122.410469
37.7266918,-122.4301016
37.7675983,-122.4174152
37.7335057,-122.4062263
37.7131127,-122.4115636
37.7645239,-122.4151173
37.7380318,-122.4304385
37.7507408,-122.4490282
37.711201,-122.4112981
37.705705,-122.449654
37.7859285,-122.3965957
37.7795955,-122.4168155
37.7961379,-122.4418138
37.7173571,-122.4406858
37.7689424,-122.4310199
37.744738,-122.424791
37.7669472,-122.4154766
37.765552,-122.415899
37.7189155,-122.4307434
37.768711,-122.4117875
37.7131407,-122.4094997
37.7659054,-122.407965
37.7108891,-122.4090083
37.770077,-122.413089
37.7854786,-122.394587
37.7055797,-122.4518053
37.736537,-122.432531
37.7182359,-122.439403
37.7671812,-122.41743
37.7340321,-122.4065142
37.738031,-122.430077
37.7678673,-122.4304005
37.7491353,-122.4494603
37.715214,-122.4372685
37.7682945,-122.4146056
37.7197732,-122.4293166
37.7675413,-122.4112428
37.7056807,-122.4152582
37.7156465,-122.43993
37.7750159,-122.419164
37.745027,-122.420983
37.767107,-122.416046
37.7349693,-122.4481724
37.797962,-122.4405278
37.7366663,-122.4290069
37.7903244,-122.4454047
37.73429,-122.428472
37.7353623,-122.4340945
37.7064123,-122.4506098
37.7306443,-122.4300324
37.7281701,-122.4280226
37.7692475,-122.4308325
37.7373509,-122.4319553
37.7046376,-122.4140258
37.732147,-122.436536
37.7659054,-122.407965
37.765422,-122.407902
37.7345823,-122.4024924
37.7657207,-122.4087338
37.7061104,-122.4140121
37.7658288,-122.4158445
37.7892232,-122.444302
37.7281357,-122.4225918
37.768633,-122.431651
37.7659054,-122.407965
37.769827,-122.4114744
37.7349461,-122.4223374
37.7306354,-122.4300721
37.7437623,-122.4217959
37.7256094,-122.4200257
37.7270132,-122.4315729
37.7046376,-122.4140258
37.7216247,-122.4421556
37.737916,-122.400643
37.7917814,-122.445994
37.7121749,-122.4390048
37.704566,-122.414672
37.76446,-122.4133211
37.7286753,-122.4195943
37.7946105,-122.4420204
37.7300158,-122.4321037
37.734081,-122.419948
37.7885251,-122.4451494
37.7046376,-122.4140258
37.7339529,-122.4303942
37.7099396,-122.4404128
37.7203044,-122.4391265
37.7843099,-122.3951604
37.7138594,-122.4117406
37.7199069,-122.4400555
37.7054015,-122.44846
37.7106015,-122.4095503
37.7052374,-122.451374
37.7705226,-122.418538
37.7695901,-122.4303526
37.7054804,-122.414849
37.7802479,-122.4196565
37.7319119,-122.4186613
37.7704323,-122.4108003
37.7537873,-122.4476777
37.7194423,-122.4434726
37.731022,-122.4286831
37.7659054,-122.407965
37.7491353,-122.4494603
37.7211527,-122.4313775
37.7763603,-122.418278
37.7790854,-122.4154732
37.7045573,-122.4157007
37.787697,-122.4450244
37.7491353,-122.4494603
37.7171668,-122.4380648
37.7290037,-122.421707
37.790705,-122.446578
37.7141275,-122.4375008
37.7911951,-122.446569
37.7060537,-122.4123159
37.7944426,-122.4430303
37.7801637,-122.4161985
37.728333,-122.432478
37.709992,-122.4453747
37.7711099,-122.4073786
37.7060537,-122.4123159
37.7659054,-122.407965
37.7185782,-122.4391376
37.7047449,-122.4161211
37.7319119,-122.4186613
37.7349226,-122.4025366
37.7341489,-122.4001138
37.734488,-122.429716
37.7250519,-122.4315618
37.7906745,-122.4472708
37.715508,-122.409043
37.7215943,-122.4292392
37.7341382,-122.3981777
37.7515013,-122.4485104
37.706114,-122.4155459
37.725432,-122.4210876
37.716915,-122.437733
37.7777096,-122.4188532
37.7196971,-122.43123
37.744163,-122.423062
37.7148817,-122.4132197
37.7141489,-122.4367045
37.791069,-122.44341
37.7664997,-122.4306584
37.718716,-122.429206
37.7686937,-122.4109727
37.7259452,-122.419539
37.7283641,-122.4282985
37.7200367,-122.4383505
37.7658011,-122.4315507
37.7831079,-122.419195
37.7653432,-122.4085694
37.738767,-122.431143
37.7341242,-122.4010431
37.7333017,-122.3974144
37.7676145,-122.4312049
37.7130044,-122.434006
37.711358,-122.43515
37.7368403,-122.4053576
37.7789562,-122.4158888
37.7142057,-122.4085215
37.767206,-122.415778
37.7698872,-122.429698
37.7385864,-122.4309977
37.7963805,-122.4401438
37.7144321,-122.4330881
37.7127566,-122.4344484
37.767182,-122.425063
37.767102,-122.4112523
37.7705095,-122.4190594
37.7911804,-122.4440161
37.7141347,-122.4083888
37.7507256,-122.4490534
37.7455119,-122.4218131
37.770884,-122.418037
37.7341242,-122.4010431
37.73504,-122.4357168
37.7355513,-122.4203686
37.7202497,-122.4308433
37.7319119,-122.4186613
37.7679315,-122.4151808
37.7795955,-122.4168155
37.735996,-122.4062869
37.707275,-122.4503619
37.7716576,-122.4118402
37.7381297,-122.4288187
37.7661571,-122.4316945
37.7692587,-122.4338758
37.7287325,-122.4290136
37.7281669,-122.4283856
37.7379659,-122.4286862
37.7906812,-122.4432531
37.797264,-122.4405922
37.747532,-122.4221605
37.7952252,-122.4389164
37.7667639,-122.4335636
37.744567,-122.4209156
37.7202849,-122.4296816
37.7338564,-122.4013086
37.7111835,-122.4451646
37.7874616,-122.4446311
37.7462714,-122.4212646
37.734973,-122.4217955
37.7197632,-122.4292281
37.7038962,-122.4146388
37.769767,-122.4181974
37.7296015,-122.4188532
37.7330096,-122.4319573
37.7184544,-122.4405089
37.7668201,-122.4068516
37.7838804,-122.3956995
37.7113687,-122.4385072
37.7189545,-122.430677
37.7715125,-122.4135926
37.7289725,-122.41684
37.7692389,-122.4324796
37.7659054,-122.407965
37.7257717,-122.4287968
37.7106846,-122.4376049
37.7046376,-122.4140258
37.7371278,-122.4062003
37.7704323,-122.4108003
37.7657795,-122.4243738
37.772343,-122.411224
37.7195954,-122.4313185
37.7681483,-122.4168943
37.706101,-122.4471551
37.7050966,-122.415037
37.7724716,-122.4129463
37.7656502,-122.4072352
37.7659054,-122.407965
37.7867577,-122.3956749
37.7909556,-122.4453526
37.7659054,-122.407965
37.7714776,-122.4244722
37.7287127,-122.4293166
37.7328583,-122.4504946
37.7797438,-122.415666
37.719105,-122.430691
37.7359446,-122.4364394
37.7307171,-122.4297028
37.7651378,-122.4079333
37.7331541,-122.430345
37.7698474,-122.4150038
37.7325088,-122.4180948
37.7183956,-122.4390048
37.7337046,-122.4503163
37.7064114,-122.4153357
37.7507256,-122.4490534
37.7694639,-122.4253717
37.7341912,-122.3985207
37.7377784,-122.4293618
37.7700597,-122.4061984
37.7293378,-122.4301885
37.734104,-122.4379429
37.769085,-122.4167752
37.7119736,-122.4109663
37.7678051,-122.4097147
37.7181415,-122.4415263
37.7063043,-122.4149264
37.789508,-122.447563
37.7175439,-122.439865
37.7899037,-122.4461709
37.7806499,-122.4179462
37.7466131,-122.4495205
37.7204693,-122.4311415
37.7120549,-122.4109441
37.7322284,-122.4205912
37.796612,-122.441489
37.7679462,-122.4072604
37.7435649,-122.423077
37.7773075,-122.4190282
37.7357972,-122.4039637
37.7927972,-122.446464
37.769653,-122.4173892
37.7382649,-122.4309535
37.7357238,-122.436792
37.7171465,-122.4411282
37.7699665,-122.4307765
37.7194184,-122.4406748
37.7687036,-122.4148857
37.7366258,-122.4303191
37.7157489,-122.4107618
37.7806499,-122.4179462
37.7360647,-122.4358973
37.7673357,-122.4071959
37.7761765,-122.4186287
37.7279067,-122.4325129
37.7636561,-122.4162823
37.7337165,-122.399096
37.7721455,-122.4126145
37.7330565,-122.4310418
37.7772159,-122.4203479
37.7058047,-122.4157339
37.7341193,-122.4000585
37.7053388,-122.4484821
37.730796,-122.41718
37.7123188,-122.4296911
37.762178,-122.4140546
